{
  "data": [
    {
      "change_amount": 3.0,
      "change_reason": "Training quest",
      "is_decrease": false,
      "is_increase": true,
      "new_value": 18.0,
      "old_value": 15.0,
      "percentage_change": 20.0,
      "stat_name": "strength",
      "stat_type": "core",
      "user_id": 1
    }
  ],
  "meta": {
    "api_version": "v1",
    "request_id": "req_pagination_001",
    "response_time_ms": 42,
    "timestamp": "2024-01-15T10:30:00Z"
  },
  "pagination": {
    "has_next": true,
    "has_prev": false,
    "next_page": 2,
    "page": 1,
    "per_page": 20,
    "prev_page": null,
    "total_items": 45,
    "total_pages": 3
  }
}